{
    "title": "Blog",
    ":itemsOrder": [
        "root"
    ],
    ":items": {
        "root": {
            "columnCount": 12,
            "allowedComponents": {
                "applicable": false,
                "components": [
                    {
                        "path": "/content/mysamplespa/en/blog/jcr:content/root/wcm/foundation/components/responsivegrid",
                        "title": "Layout Container"
                    },
                    {
                        "path": "/content/mysamplespa/en/blog/jcr:content/root/mysamplespa/components/image",
                        "title": "Image"
                    },
                    {
                        "path": "/content/mysamplespa/en/blog/jcr:content/root/mysamplespa/components/list",
                        "title": "List"
                    },
                    {
                        "path": "/content/mysamplespa/en/blog/jcr:content/root/mysamplespa/components/text",
                        "title": "Text"
                    }
                ]
            },
            "columnClassNames": {
                "responsivegrid": "aem-GridColumn aem-GridColumn--default--12"
            },
            "gridClassNames": "aem-Grid aem-Grid--12 aem-Grid--default--12",
            ":itemsOrder": [
                "responsivegrid"
            ],
            ":items": {
                "responsivegrid": {
                    "columnCount": 12,
                    "allowedComponents": {
                        "applicable": false,
                        "components": [
                            {
                                "path": "/content/mysamplespa/en/blog/jcr:content/root/responsivegrid/wcm/foundation/components/responsivegrid",
                                "title": "Layout Container"
                            },
                            {
                                "path": "/content/mysamplespa/en/blog/jcr:content/root/responsivegrid/mysamplespa/components/image",
                                "title": "Image"
                            },
                            {
                                "path": "/content/mysamplespa/en/blog/jcr:content/root/responsivegrid/mysamplespa/components/list",
                                "title": "List"
                            },
                            {
                                "path": "/content/mysamplespa/en/blog/jcr:content/root/responsivegrid/mysamplespa/components/text",
                                "title": "Text"
                            }
                        ]
                    },
                    "columnClassNames": {
                        "list": "aem-GridColumn aem-GridColumn--default--12"
                    },
                    "gridClassNames": "aem-Grid aem-Grid--12 aem-Grid--default--12",
                    ":itemsOrder": [
                        "list"
                    ],
                    ":items": {
                        "list": {
                            "dateFormatString": "yyyy-MM-dd",
                            "items": [
                                {
                                    "path": "/content/mysamplespa/en/blog/marketo-aem-integration",
                                    "url": "/content/mysamplespa/en/blog/marketo-aem-integration.html",
                                    "lastModified": 1568062392320,
                                    "description": null,
                                    "title": "Maximizing your Marketo Engage and Adobe Experience Manager (AEM) Integration"
                                },
                                {
                                    "path": "/content/mysamplespa/en/blog/sso-for-aem",
                                    "url": "/content/mysamplespa/en/blog/sso-for-aem.html",
                                    "lastModified": 1568062371789,
                                    "description": null,
                                    "title": "5 Single Sign-on methods for Adobe Experience Manager"
                                },
                                {
                                    "path": "/content/mysamplespa/en/blog/aem-best-practices",
                                    "url": "/content/mysamplespa/en/blog/aem-best-practices.html",
                                    "lastModified": 1568062348812,
                                    "description": null,
                                    "title": "AEM Best Practices for Developers & Business Practitioners"
                                },
                                {
                                    "path": "/content/mysamplespa/en/blog/aemfed",
                                    "url": "/content/mysamplespa/en/blog/aemfed.html",
                                    "lastModified": 1568062329765,
                                    "description": null,
                                    "title": "Speed up your AEM front-end development using aemfed"
                                },
                                {
                                    "path": "/content/mysamplespa/en/blog/sitecore-migration",
                                    "url": "/content/mysamplespa/en/blog/sitecore-migration.html",
                                    "lastModified": 1568062283711,
                                    "description": null,
                                    "title": "Are you considering a migration from Sitecore to Adobe Experience Manager (AEM)?"
                                }
                            ],
                            "showDescription": false,
                            "showModificationDate": false,
                            "linkItems": false,
                            ":type": "mysamplespa/components/list"
                        }
                    },
                    ":type": "wcm/foundation/components/responsivegrid"
                }
            },
            ":type": "wcm/foundation/components/responsivegrid"
        }
    },
    ":hierarchyType": "page",
    ":path": "/content/mysamplespa/en/blog",
    ":type": "mysamplespa/components/page"
}